1 10 20
100 200 125
201 210 89
900 1000 174
1000 2000 182
50 49 25
60 30 113
30 60 113
450000 449999 224
323423 423522 449
977 1023 156
10000 10000 30
523423 523424 139
4 5 6
678 789 171
203840 204034 280
999999 1000000 259
51 52 25
42 1002 179
2 15 20
43 69 113
22 44 112
3155 5283 238
12 12908 268
51 51 25
342752 294831 384
102 402 144
305 405 144
194721 192632 347
2 4 8
5 514276 470
214 534 144
126 690 145
2222 4444 238
98 89 119
12 12 10
239944 170982 443
1111 1112 45
6979 4765 262
40 60 113
2357 4567 238
2 10 20
15 20 21
1332 898 182
45 59 113
987 432 179
123 124 109
78987 78987 77
149 1998 182
4 4 3
40 599 144
156 256 128
64 128 119
2 1235 182
93 35 116
66 67 28
315 643 144
995623 213823 525
753 165 171
106 141 122
2346 8673 262
206 207 89
205 205 27
9715 3228 262
90 70 116
40 41 110
12 123 119
654 475 145
8092 43572 324
409 410 41
4137 4137 96
712 512 171
1900 2000 175
23 24 16
1245 1245 89
33 334 144
10 20 21
3042 5612 238
2761 2984 217
541 569 137
7923 2391 262
410 401 41
414 614 142
981 598 179
510 509 49
550 550 93
314 641 144
94 52 116
10 22 21
42 62 113
23 23 16
23 24 16
105 102 88
22242 14742 279
1094 1023 169
3524 4578 238
9029 4298 262
120472 949233 525
3942 4043 189
204941 492343 449
4323 2043 238
104525 482988 449
909 729 179
143 206 125
204312 402312 443
205 502 144
506142 507163 382
105 106 39
2 3 8
1 2 2
2 2 2
1 1 1
203 402 144
253 254 110
354 356 33
90 901 179
12 20 21
23 43 112
79 88 111
20 20 8
1 1000000 525
1000000 1 525
500 900000 525
700 656565 509
